CPU_TB.vcd
$date
	Tue Dec  7 18:16:14 2021
$end
$version
	Icarus Verilog
$end
$timescale
	1s
$end
$scope module CPU_tb $end
$var wire 32 ! register_v0 [31:0] $end
$var wire 32 " instr_readdata [31:0] $end
$var wire 32 # instr_address [31:0] $end
$var wire 32 $ data_writedata [31:0] $end
$var wire 1 % data_write $end
$var wire 32 & data_address [31:0] $end
$var wire 1 ' active $end
$var reg 1 ( clk $end
$var reg 1 ) clock_enable $end
$var reg 32 * data_readdata [31:0] $end
$var reg 1 + reset $end
$scope module CPU $end
$var wire 1 ( clk $end
$var wire 1 ) clock_enable $end
$var wire 32 , data_readdata [31:0] $end
$var wire 32 - op_1 [31:0] $end
$var wire 32 . register_v0 [31:0] $end
$var wire 1 + reset $end
$var wire 1 / write_enable $end
$var wire 26 0 target [25:0] $end
$var wire 3 1 subtype [2:0] $end
$var wire 1 2 shift $end
$var wire 5 3 shamt [4:0] $end
$var wire 6 4 reg_addrw [5:0] $end
$var wire 6 5 reg_addr2 [5:0] $end
$var wire 6 6 reg_addr1 [5:0] $end
$var wire 32 7 out [31:0] $end
$var wire 32 8 op_2 [31:0] $end
$var wire 32 9 instr_readdata [31:0] $end
$var wire 32 : instr [31:0] $end
$var wire 3 ; funct_tail [2:0] $end
$var wire 6 < funct [5:0] $end
$var wire 16 = astart [15:0] $end
$var wire 1 > R_type $end
$var wire 4 ? PC_upper [3:0] $end
$var wire 3 @ OP_tail [2:0] $end
$var wire 6 A OP [5:0] $end
$var wire 1 B MSB $end
$var wire 32 C LO [31:0] $end
$var wire 1 D J_type $end
$var wire 1 E I_type $end
$var wire 32 F HI [31:0] $end
$var reg 4 G ALU_code [3:0] $end
$var reg 32 H HI_reg [31:0] $end
$var reg 32 I LO_reg [31:0] $end
$var reg 32 J PC_next [31:0] $end
$var reg 1 ' active $end
$var reg 32 K data_address [31:0] $end
$var reg 1 L data_read $end
$var reg 1 % data_write $end
$var reg 32 M data_writedata [31:0] $end
$var reg 32 N instr_address [31:0] $end
$var reg 1 O next_active $end
$var reg 32 P reg_write [31:0] $end
$var reg 1 Q reset_prev $end
$scope module ALU $end
$var wire 4 R alu_control [3:0] $end
$var wire 32 S op1 [31:0] $end
$var wire 32 T op2 [31:0] $end
$var wire 5 U shamt [4:0] $end
$var wire 32 V low [0:31] $end
$var wire 32 W high [0:31] $end
$var reg 64 X mult_out [63:0] $end
$var reg 32 Y out [0:31] $end
$upscope $end
$scope begin $unm_blk_43 $end
$var integer 32 Z i [31:0] $end
$upscope $end
$upscope $end
$scope module MEM $end
$var wire 32 [ addr [31:0] $end
$var wire 32 \ instruction [31:0] $end
$upscope $end
$upscope $end
$enddefinitions $end
#0
$dumpvars
bx \
bx [
b0 Z
bx Y
bx X
bx W
bx V
bx U
bx T
bx S
b0xxx R
xQ
bx P
xO
bx N
bx M
xL
bx K
bx J
bx I
bx H
b0xxx G
bx F
xE
xD
bx C
xB
bx A
bx @
bx ?
x>
bx =
bx <
bx ;
bx :
bx 9
bx 8
bx 7
b0xxxxx 6
b0xxxxx 5
b0xxxxx 4
bx 3
x2
bx 1
bx 0
x/
bx .
bx -
bx ,
x+
bx *
x)
0(
x'
bx &
x%
bx $
bx #
bx "
bx !
$end
#1
b0 !
b0 .
1O
b10111111110000000000000000000000 J
0%
0L
b100000 Z
1+
1)
1(
#2
1Q
0(
#3
0/
b10111111110000000000000000000100 J
1E
b1111000011110000 P
0D
02
b1111000011110000 7
b1111000011110000 Y
0>
b1110 4
b1 G
b1 R
b1 @
0B
b0 ;
b1111000011110000 8
b1111000011110000 T
b1111000011110000 &
b1111000011110000 K
b1001 A
b0 -
b0 S
b0 6
b1110 5
b111 1
b110000 <
b11101111000011110000 0
b1111000011110000 =
b11 3
b11 U
b1011 ?
b100100000011101111000011110000 :
b11110000111100000000111000100100 "
b11110000111100000000111000100100 9
b11110000111100000000111000100100 \
b10111111110000000000000000000000 #
b10111111110000000000000000000000 N
b10111111110000000000000000000000 [
1'
1O
0%
0L
b100000 Z
0+
1(
#4
0Q
0(
#5
b111100001111 P
b1111 4
b111100001111 7
b111100001111 Y
b111 ;
b111100001111 8
b111100001111 T
b111100001111 &
b111100001111 K
b1111 5
b0 1
b1111 <
b11110000111100001111 0
b111100001111 =
b11100 3
b11100 U
b10111111110000000000000000001000 J
b100100000011110000111100001111 :
b1111000011110000111100100100 "
b1111000011110000111100100100 9
b1111000011110000111100100100 \
b10111111110000000000000000000100 #
b10111111110000000000000000000100 N
b10111111110000000000000000000100 [
1(
#6
0(
#7
0E
b0 J
1>
b0 @
b0 4
b0 7
b0 Y
b0 ;
b0 8
b0 T
b1000 &
b1000 K
b0 A
b0 5
b0 3
b0 U
b1000 <
b1000 0
b1000 =
b1000 :
b1000000000000000000000000000 "
b1000000000000000000000000000 9
b1000000000000000000000000000 \
b10111111110000000000000000001000 #
b10111111110000000000000000001000 N
b10111111110000000000000000001000 [
1(
#8
0(
#9
xE
x/
xD
x2
x>
bx @
xB
bx 8
bx T
b0xxxxx 4
bx ;
bx P
b0xxx G
b0xxx R
b100 J
bx &
bx K
x%
xL
bx 7
bx Y
bx A
bx -
bx S
b0xxxxx 6
b0xxxxx 5
bx 1
bx <
bx 0
bx =
bx 3
bx U
0O
b0 ?
bx :
bx "
bx 9
bx \
b0 #
b0 N
b0 [
1(
#10
0(
#11
b100 #
b100 N
b100 [
0'
1(
